@startuml

actor User as User
participant GUIS as "GUI StartPage"
participant GUIlog as "GUI CreateAccount"
participant API as "Server"
participant Database as "User Database"

activate User
User -> GUIS : Open Start page
activate GUIS
GUIS -> GUIlog : Press "create account"
activate GUIlog
GUIlog -> GUIlog : enter credentials
GUIlog -> API : Send credentials
deactivate GUIlog
activate API
API -> Database : check for duplicate username
activate Database
alt Satisfying credentials
    Database -> Database : adds user
    Database --> API : returns OK 
    API --> GUIS : "new user created"
    deactivate API 
    GUIS -> GUIS : displays extended StartPage
    deactivate GUIS
else Unsatisyfing credentials
    Database --> API : returns Error
    deactivate Database
    activate API
    API --> GUIlog : displays error message
    activate GUIlog
    deactivate API
    GUIlog --> GUIS : return to StartPage
    activate GUIS
    deactivate GUIlog
    deactivate GUIS
end

@enduml