@startuml

actor User as "Admin"
participant ADMIN as "AdminPanel"
participant CRUD as "CRUD Question"
participant LIST as "List of Questions"
participant INFO as "Question Information"
participant API as "Server"
participant DB as "Database"

activate User
User -> ADMIN : Open
activate ADMIN
ADMIN -> CRUD : Press CRUD button
activate CRUD
deactivate ADMIN

alt delete Question
    CRUD -> LIST
    activate LIST
    deactivate CRUD
    LIST -> LIST : select Question
    LIST -> API : send selected Question
    deactivate LIST
    activate API

   

else add Question
    activate CRUD
    CRUD -> INFO : open Question Information
    activate INFO
    deactivate CRUD
    INFO -> INFO : insert Infos
end


INFO -> API
    deactivate INFO
    API -> DB 
    activate DB
    DB -> DB : update Database
    DB --> API 
    deactivate DB
    API --> ADMIN : "Database updated"
    activate ADMIN
    deactivate API
    deactivate ADMIN


@enduml