@startuml

actor User as "Admin"
participant ADMIN as "AdminPanel"
participant CRUD as "CRUD Feature"
participant LIST as "List of Features"
participant INFO as "Feature Information"
participant API as "Server"
participant DB as "Database"

activate User
User -> ADMIN : Open
activate ADMIN
ADMIN -> CRUD : Press CRUD button
activate CRUD
deactivate ADMIN


alt update Feature
    CRUD -> LIST
    activate LIST
    deactivate CRUD
    LIST -> LIST : select Feature
    activate INFO
    LIST -> INFO : open Feature Information
    deactivate LIST
    INFO -> INFO : insert Infos
    

else add Feature
    activate CRUD
    CRUD -> INFO : open Feature Information
    deactivate CRUD
    INFO -> INFO : insert Infos
end


INFO -> API
    deactivate INFO
    API -> DB 
    activate DB
    DB -> DB : update Database
    DB --> API 
    deactivate DB
    API --> ADMIN : "Database updated"
    activate ADMIN
    deactivate API
    deactivate ADMIN


@enduml