@startuml

actor User as User
participant GUIS as "StartPage"
participant HIST as "UserHistory"
participant API as "Server"
participant DB as "User Database"

activate User
User -> GUIS : log in
activate GUIS
GUIS -> HIST : click "see History"
deactivate GUIS
activate HIST
HIST -> API : get user data
activate API
API -> DB : fetch user data
activate DB
DB --> API
deactivate DB
API --> HIST
deactivate API 
HIST -> HIST : displays top three distros 

@enduml