/home/lukas/Documents/GitLab/linuxlighthouse/LinuxLighthouse_Parent/LinuxLighthouse_Classes/src/main/java/at/linuxlighthouse/classes/Voting.java
/home/lukas/Documents/GitLab/linuxlighthouse/LinuxLighthouse_Parent/LinuxLighthouse_Classes/src/main/java/at/linuxlighthouse/classes/Password.java
/home/lukas/Documents/GitLab/linuxlighthouse/LinuxLighthouse_Parent/LinuxLighthouse_Classes/src/main/java/at/linuxlighthouse/classes/Distribution.java
/home/lukas/Documents/GitLab/linuxlighthouse/LinuxLighthouse_Parent/LinuxLighthouse_Classes/src/main/java/at/linuxlighthouse/classes/Notification.java
/home/lukas/Documents/GitLab/linuxlighthouse/LinuxLighthouse_Parent/LinuxLighthouse_Classes/src/main/java/at/linuxlighthouse/classes/UserComment.java
/home/lukas/Documents/GitLab/linuxlighthouse/LinuxLighthouse_Parent/LinuxLighthouse_Classes/src/main/java/at/linuxlighthouse/classes/Constants.java
/home/lukas/Documents/GitLab/linuxlighthouse/LinuxLighthouse_Parent/LinuxLighthouse_Classes/src/main/java/at/linuxlighthouse/classes/Question.java
/home/lukas/Documents/GitLab/linuxlighthouse/LinuxLighthouse_Parent/LinuxLighthouse_Classes/src/main/java/at/linuxlighthouse/classes/Feature.java
/home/lukas/Documents/GitLab/linuxlighthouse/LinuxLighthouse_Parent/LinuxLighthouse_Classes/src/main/java/at/linuxlighthouse/classes/DesktopEnvironment.java
/home/lukas/Documents/GitLab/linuxlighthouse/LinuxLighthouse_Parent/LinuxLighthouse_Classes/src/main/java/at/linuxlighthouse/classes/PackageManager.java
/home/lukas/Documents/GitLab/linuxlighthouse/LinuxLighthouse_Parent/LinuxLighthouse_Classes/src/main/java/at/linuxlighthouse/classes/UserHistory.java
/home/lukas/Documents/GitLab/linuxlighthouse/LinuxLighthouse_Parent/LinuxLighthouse_Classes/src/main/java/at/linuxlighthouse/classes/User.java
/home/lukas/Documents/GitLab/linuxlighthouse/LinuxLighthouse_Parent/LinuxLighthouse_Classes/src/main/java/at/linuxlighthouse/classes/PackageManagerList.java
/home/lukas/Documents/GitLab/linuxlighthouse/LinuxLighthouse_Parent/LinuxLighthouse_Classes/src/main/java/at/linuxlighthouse/classes/XMLHandler.java
/home/lukas/Documents/GitLab/linuxlighthouse/LinuxLighthouse_Parent/LinuxLighthouse_Classes/src/main/java/module-info.java
